id;appointment_date;period;price;notes;hall_id;room_id
1;2019-09-29;MORNING;25601;bus;1;1
2;2019-09-30;FULL_DAY;2302;deposit quantify maximize;2;2
3;2019-09-30;FULL_DAY;84043;District Wooden Visionary;3;3
4;2019-09-30;FULL_DAY;31144;Persistent Investment Account;4;4
5;2019-09-30;MORNING;20557;auxiliary Money Market Account Cotton;5;5
6;2019-09-30;EVENING;46570;Rue District;6;6
7;2019-09-30;MORNING;91274;Devolved;7;7
8;2019-09-30;FULL_DAY;31147;multi-byte modular;8;8
9;2019-09-30;EVENING;51517;Strategist;9;9
10;2019-09-30;EVENING;86063;Zimbabwe;10;10
