id;title;description;user_id
1;Fantastic;Ergonomic Rubber Chicken;1
2;withdrawal;quantifying Garden;2
3;hybrid;Solomon Islands Dollar;1
4;Accountability Handmade Cotton Bacon;intermediate Table quantify;2
5;Producer infrastructures;Robust Louisiana;2
6;Texas Managed Dobra;compress Fantastic Global;2
7;navigating encoding;Fantastic Small Frozen Salad bypassing;1
8;Usability;Applications Missouri deposit;1
9;methodical;Pakistan;1
10;Data neural Wooden;Cambridgeshire Tasty Rubber Car mindshare;2
