{
  "name": "FavoriteItem",
  "fields": [],
  "relationships": [
    {
      "relationshipType": "many-to-one",
      "otherEntityName": "item",
      "otherEntityRelationshipName": "favoriteItem",
      "relationshipName": "item",
      "otherEntityField": "name"
    },
    {
      "relationshipType": "many-to-one",
      "otherEntityName": "user",
      "otherEntityRelationshipName": "favoriteItem",
      "relationshipName": "user",
      "otherEntityField": "id"
    }
  ],
  "changelogDate": "20200930183144",
  "entityTableName": "favorite_item",
  "dto": "mapstruct",
  "pagination": "pagination",
  "service": "serviceClass",
  "jpaMetamodelFiltering": true,
  "fluentMethods": true,
  "clientRootFolder": "",
  "applications": "*"
}
